EESchema Schematic File Version 4
EELAYER 30 0
EELAYER END
$Descr A4 11693 8268
encoding utf-8
Sheet 1 1
Title ""
Date ""
Rev ""
Comp ""
Comment1 ""
Comment2 ""
Comment3 ""
Comment4 ""
$EndDescr
$Comp
L Timer:LMC555xN U1
U 1 1 617326F8
P 5050 3400
F 0 "U1" H 4600 3950 50  0000 C CNN
F 1 "LMC555xN" H 4750 3850 50  0000 C CNN
F 2 "Package_DIP:DIP-8_W7.62mm" H 5700 3000 50  0001 C CNN
F 3 "http://www.ti.com/lit/ds/symlink/lmc555.pdf" H 5900 3000 50  0001 C CNN
	1    5050 3400
	1    0    0    -1  
$EndComp
$Comp
L Device:R_POT_Small RV1
U 1 1 6173348D
P 6000 3300
F 0 "RV1" H 5941 3346 50  0000 R CNN
F 1 "50K" H 5941 3255 50  0000 R CNN
F 2 "Potentiometer_THT:Potentiometer_Alps_RK09K_Single_Vertical" H 6000 3300 50  0001 C CNN
F 3 "~" H 6000 3300 50  0001 C CNN
	1    6000 3300
	1    0    0    -1  
$EndComp
$Comp
L Device:R_POT_Small RV2
U 1 1 61733BCF
P 6000 3500
F 0 "RV2" H 5940 3454 50  0000 R CNN
F 1 "50K" H 5940 3545 50  0000 R CNN
F 2 "Potentiometer_THT:Potentiometer_Alps_RK09K_Single_Vertical" H 6000 3500 50  0001 C CNN
F 3 "~" H 6000 3500 50  0001 C CNN
	1    6000 3500
	-1   0    0    1   
$EndComp
Wire Wire Line
	6000 3400 5550 3400
Connection ~ 6000 3400
$Comp
L power:VCC #PWR04
U 1 1 61739CE3
P 6100 3000
F 0 "#PWR04" H 6100 2850 50  0001 C CNN
F 1 "VCC" H 6115 3173 50  0000 C CNN
F 2 "" H 6100 3000 50  0001 C CNN
F 3 "" H 6100 3000 50  0001 C CNN
	1    6100 3000
	1    0    0    -1  
$EndComp
$Comp
L power:GND #PWR03
U 1 1 6173A175
P 5400 3850
F 0 "#PWR03" H 5400 3600 50  0001 C CNN
F 1 "GND" H 5405 3677 50  0000 C CNN
F 2 "" H 5400 3850 50  0001 C CNN
F 3 "" H 5400 3850 50  0001 C CNN
	1    5400 3850
	1    0    0    -1  
$EndComp
Wire Wire Line
	5900 3500 5750 3500
Wire Wire Line
	5750 3500 5750 3600
Wire Wire Line
	5750 3600 5550 3600
$Comp
L Device:C_Small C1
U 1 1 6173BE30
P 5750 3700
F 0 "C1" H 5850 3650 50  0000 L CNN
F 1 "100uF" H 5800 3550 50  0000 L CNN
F 2 "Capacitor_THT:CP_Radial_D5.0mm_P2.00mm" H 5750 3700 50  0001 C CNN
F 3 "~" H 5750 3700 50  0001 C CNN
	1    5750 3700
	1    0    0    -1  
$EndComp
Connection ~ 5750 3600
Wire Wire Line
	5750 3800 5400 3800
Wire Wire Line
	5400 3850 5400 3800
Connection ~ 5400 3800
Wire Wire Line
	5400 3800 5050 3800
Wire Wire Line
	5750 3600 5900 3600
Wire Wire Line
	5900 3600 5900 3700
Wire Wire Line
	5900 3700 6100 3700
Wire Wire Line
	6100 3700 6100 4100
$Comp
L Device:C_Small C2
U 1 1 6173DE58
P 4300 3500
F 0 "C2" H 4050 3550 50  0000 L CNN
F 1 "10nF" H 4000 3450 50  0000 L CNN
F 2 "Capacitor_THT:C_Disc_D3.8mm_W2.6mm_P2.50mm" H 4300 3500 50  0001 C CNN
F 3 "~" H 4300 3500 50  0001 C CNN
	1    4300 3500
	1    0    0    -1  
$EndComp
$Comp
L power:VCC #PWR01
U 1 1 6173FDAA
P 4550 3600
F 0 "#PWR01" H 4550 3450 50  0001 C CNN
F 1 "VCC" V 4450 3650 50  0000 C CNN
F 2 "" H 4550 3600 50  0001 C CNN
F 3 "" H 4550 3600 50  0001 C CNN
	1    4550 3600
	1    0    0    -1  
$EndComp
Wire Wire Line
	4550 3400 4300 3400
Wire Wire Line
	4300 3600 4300 3800
Wire Wire Line
	4300 3800 5050 3800
Connection ~ 5050 3800
Wire Wire Line
	3950 3200 3950 4100
Wire Wire Line
	3950 4100 6100 4100
Wire Wire Line
	3950 3200 4550 3200
$Comp
L power:VCC #PWR02
U 1 1 61742338
P 5050 3000
F 0 "#PWR02" H 5050 2850 50  0001 C CNN
F 1 "VCC" H 5065 3173 50  0000 C CNN
F 2 "" H 5050 3000 50  0001 C CNN
F 3 "" H 5050 3000 50  0001 C CNN
	1    5050 3000
	1    0    0    -1  
$EndComp
Wire Wire Line
	6100 3000 6100 3300
NoConn ~ 6000 3200
NoConn ~ 6000 3600
Text GLabel 5650 3050 2    50   Input ~ 0
555OUT
Wire Wire Line
	5650 3050 5600 3050
Wire Wire Line
	5600 3050 5600 3200
Wire Wire Line
	5600 3200 5550 3200
$Comp
L Transistor_FET:BS170 Q3
U 1 1 61733262
P 7800 4850
F 0 "Q3" H 8004 4896 50  0000 L CNN
F 1 "BS170" H 8004 4805 50  0000 L CNN
F 2 "Package_TO_SOT_THT:TO-92_Inline" H 8000 4775 50  0001 L CIN
F 3 "https://www.onsemi.com/pub/Collateral/BS170-D.PDF" H 7800 4850 50  0001 L CNN
	1    7800 4850
	1    0    0    -1  
$EndComp
Text GLabel 7300 4850 0    50   Input ~ 0
555OUT
$Comp
L Device:R_Small R4
U 1 1 6173FC45
P 7500 4750
F 0 "R4" H 7650 4700 50  0000 R CNN
F 1 "1K" H 7700 4800 50  0000 R CNN
F 2 "Resistor_THT:R_Axial_DIN0207_L6.3mm_D2.5mm_P10.16mm_Horizontal" H 7500 4750 50  0001 C CNN
F 3 "~" H 7500 4750 50  0001 C CNN
	1    7500 4750
	-1   0    0    1   
$EndComp
Wire Wire Line
	7600 4850 7500 4850
$Comp
L power:GND #PWR09
U 1 1 61742419
P 7750 5050
F 0 "#PWR09" H 7750 4800 50  0001 C CNN
F 1 "GND" H 7755 4877 50  0000 C CNN
F 2 "" H 7750 5050 50  0001 C CNN
F 3 "" H 7750 5050 50  0001 C CNN
	1    7750 5050
	1    0    0    -1  
$EndComp
Wire Wire Line
	7900 5050 7750 5050
$Comp
L Device:R_Small R5
U 1 1 61744C93
P 7700 4450
F 0 "R5" H 7850 4400 50  0000 R CNN
F 1 "RLED" H 7950 4500 50  0000 R CNN
F 2 "Resistor_THT:R_Axial_DIN0207_L6.3mm_D2.5mm_P10.16mm_Horizontal" H 7700 4450 50  0001 C CNN
F 3 "~" H 7700 4450 50  0001 C CNN
	1    7700 4450
	-1   0    0    1   
$EndComp
$Comp
L Device:R_Small R7
U 1 1 617450DC
P 8100 4450
F 0 "R7" H 8250 4400 50  0000 R CNN
F 1 "RLED" H 8350 4500 50  0000 R CNN
F 2 "Resistor_THT:R_Axial_DIN0207_L6.3mm_D2.5mm_P10.16mm_Horizontal" H 8100 4450 50  0001 C CNN
F 3 "~" H 8100 4450 50  0001 C CNN
	1    8100 4450
	-1   0    0    1   
$EndComp
$Comp
L Device:LED D2
U 1 1 61746764
P 7700 4200
F 0 "D2" V 7739 4082 50  0000 R CNN
F 1 "LED" V 7648 4082 50  0000 R CNN
F 2 "LED_THT:LED_D3.0mm" H 7700 4200 50  0001 C CNN
F 3 "~" H 7700 4200 50  0001 C CNN
	1    7700 4200
	0    -1   -1   0   
$EndComp
$Comp
L Device:LED D4
U 1 1 6174733D
P 8100 4200
F 0 "D4" V 8139 4082 50  0000 R CNN
F 1 "LED" V 8048 4082 50  0000 R CNN
F 2 "LED_THT:LED_D3.0mm" H 8100 4200 50  0001 C CNN
F 3 "~" H 8100 4200 50  0001 C CNN
	1    8100 4200
	0    -1   -1   0   
$EndComp
$Comp
L power:VCC #PWR010
U 1 1 617486CD
P 7900 4050
F 0 "#PWR010" H 7900 3900 50  0001 C CNN
F 1 "VCC" H 7915 4223 50  0000 C CNN
F 2 "" H 7900 4050 50  0001 C CNN
F 3 "" H 7900 4050 50  0001 C CNN
	1    7900 4050
	1    0    0    -1  
$EndComp
Wire Wire Line
	7700 4050 7900 4050
Wire Wire Line
	7900 4050 8100 4050
Connection ~ 7900 4050
Wire Wire Line
	8100 4550 7900 4550
Wire Wire Line
	7900 4650 7900 4550
Connection ~ 7900 4550
Wire Wire Line
	7900 4550 7700 4550
$Comp
L Transistor_FET:BS170 Q2
U 1 1 6174FD05
P 7550 1850
F 0 "Q2" H 7754 1896 50  0000 L CNN
F 1 "BS170" H 7754 1805 50  0000 L CNN
F 2 "Package_TO_SOT_THT:TO-92_Inline" H 7750 1775 50  0001 L CIN
F 3 "https://www.onsemi.com/pub/Collateral/BS170-D.PDF" H 7550 1850 50  0001 L CNN
	1    7550 1850
	1    0    0    -1  
$EndComp
Text GLabel 6450 2050 0    50   Input ~ 0
555OUT
$Comp
L Device:R_Small R2
U 1 1 6174FD0C
P 7050 1750
F 0 "R2" H 7200 1700 50  0000 R CNN
F 1 "1K" H 7250 1800 50  0000 R CNN
F 2 "Resistor_THT:R_Axial_DIN0207_L6.3mm_D2.5mm_P10.16mm_Horizontal" H 7050 1750 50  0001 C CNN
F 3 "~" H 7050 1750 50  0001 C CNN
	1    7050 1750
	-1   0    0    1   
$EndComp
Wire Wire Line
	7350 1850 7050 1850
$Comp
L power:GND #PWR08
U 1 1 6174FD14
P 7650 2050
F 0 "#PWR08" H 7650 1800 50  0001 C CNN
F 1 "GND" H 7655 1877 50  0000 C CNN
F 2 "" H 7650 2050 50  0001 C CNN
F 3 "" H 7650 2050 50  0001 C CNN
	1    7650 2050
	1    0    0    -1  
$EndComp
$Comp
L Device:R_Small R3
U 1 1 6174FD1D
P 7450 1450
F 0 "R3" H 7600 1400 50  0000 R CNN
F 1 "RLED" H 7700 1500 50  0000 R CNN
F 2 "Resistor_THT:R_Axial_DIN0207_L6.3mm_D2.5mm_P10.16mm_Horizontal" H 7450 1450 50  0001 C CNN
F 3 "~" H 7450 1450 50  0001 C CNN
	1    7450 1450
	-1   0    0    1   
$EndComp
$Comp
L Device:R_Small R6
U 1 1 6174FD23
P 7850 1450
F 0 "R6" H 8000 1400 50  0000 R CNN
F 1 "RLED" H 8100 1500 50  0000 R CNN
F 2 "Resistor_THT:R_Axial_DIN0207_L6.3mm_D2.5mm_P10.16mm_Horizontal" H 7850 1450 50  0001 C CNN
F 3 "~" H 7850 1450 50  0001 C CNN
	1    7850 1450
	-1   0    0    1   
$EndComp
$Comp
L Device:LED D1
U 1 1 6174FD29
P 7450 1200
F 0 "D1" V 7489 1082 50  0000 R CNN
F 1 "LED" V 7398 1082 50  0000 R CNN
F 2 "LED_THT:LED_D3.0mm" H 7450 1200 50  0001 C CNN
F 3 "~" H 7450 1200 50  0001 C CNN
	1    7450 1200
	0    -1   -1   0   
$EndComp
$Comp
L Device:LED D3
U 1 1 6174FD2F
P 7850 1200
F 0 "D3" V 7889 1082 50  0000 R CNN
F 1 "LED" V 7798 1082 50  0000 R CNN
F 2 "LED_THT:LED_D3.0mm" H 7850 1200 50  0001 C CNN
F 3 "~" H 7850 1200 50  0001 C CNN
	1    7850 1200
	0    -1   -1   0   
$EndComp
$Comp
L power:VCC #PWR07
U 1 1 6174FD35
P 7650 1050
F 0 "#PWR07" H 7650 900 50  0001 C CNN
F 1 "VCC" H 7665 1223 50  0000 C CNN
F 2 "" H 7650 1050 50  0001 C CNN
F 3 "" H 7650 1050 50  0001 C CNN
	1    7650 1050
	1    0    0    -1  
$EndComp
Wire Wire Line
	7450 1050 7650 1050
Wire Wire Line
	7650 1050 7850 1050
Connection ~ 7650 1050
Wire Wire Line
	7850 1550 7650 1550
Wire Wire Line
	7650 1650 7650 1550
Connection ~ 7650 1550
Wire Wire Line
	7650 1550 7450 1550
$Comp
L Transistor_FET:BS170 Q1
U 1 1 6175677A
P 6950 2050
F 0 "Q1" H 7154 2096 50  0000 L CNN
F 1 "BS170" H 7154 2005 50  0000 L CNN
F 2 "Package_TO_SOT_THT:TO-92_Inline" H 7150 1975 50  0001 L CIN
F 3 "https://www.onsemi.com/pub/Collateral/BS170-D.PDF" H 6950 2050 50  0001 L CNN
	1    6950 2050
	1    0    0    -1  
$EndComp
Wire Wire Line
	6750 2050 6450 2050
$Comp
L power:GND #PWR05
U 1 1 61756788
P 6900 2250
F 0 "#PWR05" H 6900 2000 50  0001 C CNN
F 1 "GND" H 6905 2077 50  0000 C CNN
F 2 "" H 6900 2250 50  0001 C CNN
F 3 "" H 6900 2250 50  0001 C CNN
	1    6900 2250
	1    0    0    -1  
$EndComp
Wire Wire Line
	7050 2250 6900 2250
Connection ~ 7050 1850
$Comp
L power:VCC #PWR06
U 1 1 61773E85
P 7050 1650
F 0 "#PWR06" H 7050 1500 50  0001 C CNN
F 1 "VCC" H 7065 1823 50  0000 C CNN
F 2 "" H 7050 1650 50  0001 C CNN
F 3 "" H 7050 1650 50  0001 C CNN
	1    7050 1650
	1    0    0    -1  
$EndComp
$Comp
L Device:Battery_Cell BT1
U 1 1 6178243F
P 8250 3100
F 0 "BT1" H 8368 3196 50  0000 L CNN
F 1 "CR2032" H 8368 3105 50  0000 L CNN
F 2 "ProjectLibs:Generic_20mm_coincell_battery_pth" V 8250 3160 50  0001 C CNN
F 3 "~" V 8250 3160 50  0001 C CNN
	1    8250 3100
	1    0    0    -1  
$EndComp
$Comp
L power:VCC #PWR011
U 1 1 617859B6
P 8250 2500
F 0 "#PWR011" H 8250 2350 50  0001 C CNN
F 1 "VCC" H 8265 2673 50  0000 C CNN
F 2 "" H 8250 2500 50  0001 C CNN
F 3 "" H 8250 2500 50  0001 C CNN
	1    8250 2500
	1    0    0    -1  
$EndComp
$Comp
L power:GND #PWR012
U 1 1 617863C8
P 8250 3300
F 0 "#PWR012" H 8250 3050 50  0001 C CNN
F 1 "GND" H 8255 3127 50  0000 C CNN
F 2 "" H 8250 3300 50  0001 C CNN
F 3 "" H 8250 3300 50  0001 C CNN
	1    8250 3300
	1    0    0    -1  
$EndComp
$Comp
L Switch:SW_SPST SW1
U 1 1 61788DA2
P 8350 2700
F 0 "SW1" V 8304 2798 50  0000 L CNN
F 1 "PWR_SW" V 8395 2798 50  0000 L CNN
F 2 "NilesCustom:SW-SPDT-THT-Slide-P2.50mm-Vertical" H 8350 2700 50  0001 C CNN
F 3 "~" H 8350 2700 50  0001 C CNN
	1    8350 2700
	0    1    1    0   
$EndComp
Connection ~ 7500 4850
Wire Wire Line
	7500 4850 7300 4850
$Comp
L power:VCC #PWR0101
U 1 1 6173DA9C
P 7350 4600
F 0 "#PWR0101" H 7350 4450 50  0001 C CNN
F 1 "VCC" H 7365 4773 50  0000 C CNN
F 2 "" H 7350 4600 50  0001 C CNN
F 3 "" H 7350 4600 50  0001 C CNN
	1    7350 4600
	1    0    0    -1  
$EndComp
Wire Wire Line
	7350 4600 7500 4600
Wire Wire Line
	7500 4600 7500 4650
Wire Wire Line
	8350 2500 8250 2500
Wire Wire Line
	8350 2900 8250 2900
Wire Wire Line
	8250 3300 8250 3200
$EndSCHEMATC
